<?xml version="1.0" encoding="utf-8"?>
<!-- Generator: Adobe Illustrator 22.1.0, SVG Export Plug-In . SVG Version: 6.00 Build 0)  -->
<svg version="1.1" id="Слой_1" xmlns="http://www.w3.org/2000/svg" xmlns:xlink="http://www.w3.org/1999/xlink" x="0px" y="0px"
	 viewBox="0 0 516 271" style="enable-background:new 0 0 516 271;" xml:space="preserve">
<style type="text/css">
	.st0{fill:#754505;}
	.st1{fill:url(#SVGID_1_);}
	.st2{fill:url(#SVGID_2_);}
	.st3{fill:#030106;}
	.st4{fill:#FFFFFF;}
	.st5{fill:none;stroke:#754505;stroke-width:3;stroke-linecap:square;stroke-linejoin:round;}
	.st6{fill:none;stroke:#030106;stroke-width:11;stroke-linecap:square;stroke-linejoin:round;}
	.st7{fill:none;stroke:#030102;stroke-width:9;stroke-linecap:square;stroke-linejoin:round;}
	.st8{fill:#FFFFFC;}
</style>
<g>
	<g transform="translate(442 133)">
		<ellipse class="st0" cx="37" cy="38.5" rx="37" ry="38.5"/>
		
			<linearGradient id="SVGID_1_" gradientUnits="userSpaceOnUse" x1="-487.1582" y1="393.7061" x2="-487.5547" y2="393.4735" gradientTransform="matrix(49.718 0 0 -51.726 24277.2422 20390.4297)">
			<stop  offset="0" style="stop-color:#F1B6CE"/>
			<stop  offset="1" style="stop-color:#B8658E"/>
		</linearGradient>
		<ellipse class="st1" cx="37" cy="37.6" rx="24.9" ry="25.9"/>
	</g>
	<g transform="translate(0 133)">
		<ellipse class="st0" cx="37" cy="38.5" rx="37" ry="38.5"/>
		
			<linearGradient id="SVGID_2_" gradientUnits="userSpaceOnUse" x1="-45.1582" y1="393.7061" x2="-45.5547" y2="393.4735" gradientTransform="matrix(49.718 0 0 -51.726 2301.887 20390.4297)">
			<stop  offset="0" style="stop-color:#F1B6CE"/>
			<stop  offset="1" style="stop-color:#B8658E"/>
		</linearGradient>
		<ellipse class="st2" cx="37" cy="37.6" rx="24.9" ry="25.9"/>
	</g>
	<path class="st0" d="M257.9,472c115.8,0,252-107.4,234.6-227.6C475.1,124.2,373.7,0,257.9,0S58.1,111.5,23.9,244.4
		S142.1,472,257.9,472z"/>
	<path class="st3" d="M311,179c-5.8-34-23.3-51-52.5-51s-46.7,17-52.5,51H311z"/>
	<g transform="translate(180 197)">
		<ellipse class="st3" cx="19.9" cy="3.4" rx="3.5" ry="3.4"/>
		<ellipse class="st3" cx="19.9" cy="27.6" rx="3.5" ry="3.4"/>
		<ellipse class="st3" cx="3.5" cy="15.8" rx="3.5" ry="3.4"/>
		<ellipse class="st3" cx="37.5" cy="15.8" rx="3.5" ry="3.4"/>
	</g>
	<g transform="translate(293 197)">
		<ellipse class="st3" cx="19.9" cy="3.4" rx="3.5" ry="3.4"/>
		<ellipse class="st3" cx="19.9" cy="27.6" rx="3.5" ry="3.4"/>
		<ellipse class="st3" cx="3.5" cy="15.8" rx="3.5" ry="3.4"/>
		<ellipse class="st3" cx="37.5" cy="15.8" rx="3.5" ry="3.4"/>
	</g>
	<path class="st4" d="M242.1,231.3c5.8-5.2,11.2-12.3,16.4-21.3c3.4,9.5,8.3,16.6,14.9,21.3c10.2,6.8,18.4,10.2,24.6,10.2V271h-79
		v-30.5C228.2,238.6,235.8,235.5,242.1,231.3z"/>
	<path class="st5" d="M259,206.3l-1.6,64.7"/>
	<path class="st6" d="M152,241.9c39.1,5.6,66.7,3.7,82.8-5.6c17.1-13.7,24.7-32.2,22.9-55.3"/>
	<path class="st6" d="M364,243.9c-39.1,5.6-66.7,3.7-82.8-5.6c-17.1-13.7-24.7-32.2-22.9-55.3"/>
	<g transform="translate(87 42)">
		<g transform="translate(4)">
			<path class="st7" d="M0.8,16.5c12.7,8.2,23.7,10.9,33,8.2S51.1,13.8,57.5,0.2"/>
			<path class="st7" d="M274.5,0.2c6.4,13.6,14.3,21.8,23.7,24.5s20.4-0.1,33-8.2"/>
		</g>
		<g transform="translate(0 42)">
			<circle cx="35" cy="35" r="35"/>
			<circle class="st4" cx="41" cy="25" r="21"/>
			<circle class="st4" cx="36.5" cy="57.5" r="8.5"/>
		</g>
		<g transform="matrix(-1 0 0 1 329 42)">
			<circle cx="35" cy="35" r="35"/>
			<circle class="st4" cx="41" cy="25" r="21"/>
			<circle class="st4" cx="36.5" cy="57.5" r="8.5"/>
		</g>
	</g>
</g>
<g>
	<path class="st8" d="M123.5,166.9c0,0-18,21.3-18,36.3c0,10,8.1,18,18,18s18-8.1,18-18C141.5,188.2,123.5,166.9,123.5,166.9z"/>
</g>
</svg>
