<?xml version="1.0" encoding="UTF-8"?>
<svg width="712px" height="808px" viewBox="0 0 712 808" version="1.1" xmlns="http://www.w3.org/2000/svg" xmlns:xlink="http://www.w3.org/1999/xlink">
    <!-- Generator: Sketch 53 (72520) - https://sketchapp.com -->
    <title>Group 5</title>
    <desc>Created with Sketch.</desc>
    <g id="Page-1" stroke="none" stroke-width="1" fill="none" fill-rule="evenodd">
        <g id="09" transform="translate(-20.000000, -120.000000)">
            <g id="Group-5" transform="translate(20.000000, 120.000000)">
                <circle id="Oval-2" fill="#14D2B8" cx="61.5" cy="109.5" r="8.5"></circle>
                <circle id="Oval-2" fill="#14D2B8" cx="618.5" cy="8.5" r="8.5"></circle>
                <path d="M603.726631,536.785058 C606.923857,533.629489 610.399931,533.628323 614.154852,536.78156 C617.909773,539.934797 621.137006,539.933715 623.836552,536.778312" id="Path-5" stroke="#14D2B8" stroke-width="3.6" stroke-linecap="round" stroke-linejoin="round" transform="translate(613.781591, 536.781591) rotate(45.000000) translate(-613.781591, -536.781591) "></path>
                <circle id="Oval-4" stroke="#00BBC9" stroke-width="3" stroke-linecap="round" stroke-linejoin="round" cx="666.5" cy="745.5" r="4.5"></circle>
                <path d="M75.6475745,413.474921 C78.8426843,410.321496 82.3187579,410.322662 86.0757953,413.47842 C89.8328327,416.634177 93.060066,416.63526 95.7574951,413.481667" id="Path-5-Copy" stroke="#00BBC9" stroke-width="3.6" stroke-linecap="round" stroke-linejoin="round" transform="translate(85.702535, 413.478388) rotate(-45.000000) translate(-85.702535, -413.478388) "></path>
                <path d="M-3.63359188,283.401582 C-0.437302454,280.245583 3.03802161,280.24469 6.7923803,283.398902 C10.546739,286.553115 13.7732764,286.552285 16.4719925,283.396414" id="Path-5-Copy-2" stroke="#FFB44D" stroke-width="3.6" opacity="0.100000001" stroke-linecap="round" stroke-linejoin="round" transform="translate(6.419200, 283.398926) rotate(65.000000) translate(-6.419200, -283.398926) "></path>
                <polygon id="Star-3" fill="#FFB44D" transform="translate(225.220598, 176.220598) rotate(45.000000) translate(-225.220598, -176.220598) " points="225.217581 182.839332 219.002122 186.276601 220.19139 179.000365 215.165638 173.849275 222.113801 172.785414 225.223175 166.164596 228.328108 172.783329 235.275559 173.842529 230.24635 178.996992 231.430736 186.272432"></polygon>
                <path d="M491.454212,619.466541 L490.644248,614.491096 L494.162476,610.885245 L489.310262,610.145482 L487.222418,605.694861 L485.131501,610.147071 L480.277056,610.890354 L483.793907,614.494913 L482.98106,619.468116 L487.217276,617.125407 L491.454212,619.466541 Z" id="Star-3-Copy-2" stroke="#E66A1C" stroke-width="3" transform="translate(487.220598, 612.220598) rotate(45.000000) translate(-487.220598, -612.220598) "></path>
                <polygon id="Star-3-Copy" fill="#00BBC9" transform="translate(233.220598, 459.220598) rotate(45.000000) translate(-233.220598, -459.220598) " points="233.217581 465.839332 227.002122 469.276601 228.19139 462.000365 223.165638 456.849275 230.113801 455.785414 233.223175 449.164596 236.328108 455.783329 243.275559 456.842529 238.24635 461.996992 239.430736 469.272432"></polygon>
                <path d="M503.913603,452.181857 L508.056857,452.181857 C509.363054,452.181857 510.421936,453.240739 510.421936,454.546936 C510.421936,455.853134 509.363054,456.912016 508.056857,456.912016 L503.913603,456.912016 L503.913603,461.049317 C503.913603,462.356391 502.85401,463.415984 501.546936,463.415984 C500.239862,463.415984 499.18027,462.356391 499.18027,461.049317 L499.18027,456.912016 L495.037016,456.912016 C493.730818,456.912016 492.671936,455.853134 492.671936,454.546936 C492.671936,453.240739 493.730818,452.181857 495.037016,452.181857 L499.18027,452.181857 L499.18027,448.044555 C499.18027,446.737482 500.239862,445.677889 501.546936,445.677889 C502.85401,445.677889 503.913603,446.737482 503.913603,448.044555 L503.913603,452.181857 Z" id="Combined-Shape" fill="#14D2B8" transform="translate(501.546936, 454.546936) rotate(45.000000) translate(-501.546936, -454.546936) "></path>
                <path d="M440.797393,152.326374 L443.835779,152.326374 C444.793657,152.326374 445.570171,153.102888 445.570171,154.060766 C445.570171,155.018644 444.793657,155.795157 443.835779,155.795157 L440.797393,155.795157 L440.797393,158.829178 C440.797393,159.787699 440.020358,160.564734 439.061837,160.564734 C438.103317,160.564734 437.326282,159.787699 437.326282,158.829178 L437.326282,155.795157 L434.287896,155.795157 C433.330018,155.795157 432.553504,155.018644 432.553504,154.060766 C432.553504,153.102888 433.330018,152.326374 434.287896,152.326374 L437.326282,152.326374 L437.326282,149.292353 C437.326282,148.333832 438.103317,147.556797 439.061837,147.556797 C440.020358,147.556797 440.797393,148.333832 440.797393,149.292353 L440.797393,152.326374 Z" id="Combined-Shape-Copy-2" fill="#FFB44D" transform="translate(439.061837, 154.060766) rotate(35.000000) translate(-439.061837, -154.060766) "></path>
                <path d="M219.42044,650.614076 C220.187248,649.431197 221.205379,649.419844 222.474832,650.580015 C223.584258,651.784595 224.554354,652.386779 225.38512,652.386565 C226.215886,652.386352 227.183144,651.762564 228.286892,650.515203 C229.284897,649.396662 230.278321,648.837264 231.267164,648.83701 C232.256008,648.836756 233.231961,649.395647 234.195023,650.513685 C235.220731,651.760499 236.219346,652.383782 237.190868,652.383532 C238.16239,652.383282 239.129937,651.759495 240.093507,650.512169 C241.110569,649.393623 242.111467,648.834224 243.096203,648.833971 C244.080939,648.833718 245.053197,649.39261 246.012978,650.510648 C246.586386,651.366732 247.187637,651.794693 247.816733,651.794532" id="Path-6" stroke="#00BBC9" stroke-width="3" stroke-linecap="round" stroke-linejoin="round" transform="translate(233.618586, 650.610268) rotate(25.000000) translate(-233.618586, -650.610268) "></path>
                <path d="M246.42044,57.6140756 C247.187248,56.4311972 248.205379,56.4198437 249.474832,57.580015 C250.584258,58.7845952 251.554354,59.3867786 252.38512,59.3865652 C253.215886,59.3863518 254.183144,58.7625642 255.286892,57.5152026 C256.284897,56.3966615 257.278321,55.837264 258.267164,55.8370099 C259.256008,55.8367559 260.231961,56.3956474 261.195023,57.5136847 C262.220731,58.7604992 263.219346,59.3837817 264.190868,59.3835321 C265.16239,59.3832825 266.129937,58.7594948 267.093507,57.5121692 C268.110569,56.3936233 269.111467,55.8342238 270.096203,55.8339708 C271.080939,55.8337178 272.053197,56.3926103 273.012978,57.5106484 C273.586386,58.3667321 274.187637,58.7946931 274.816733,58.7945315" id="Path-6" stroke="#00BBC9" stroke-width="3" stroke-linecap="round" stroke-linejoin="round" transform="translate(260.618586, 57.610268) rotate(25.000000) translate(-260.618586, -57.610268) "></path>
                <path d="M590.42044,125.614076 C591.187248,124.431197 592.205379,124.419844 593.474832,125.580015 C594.584258,126.784595 595.554354,127.386779 596.38512,127.386565 C597.215886,127.386352 598.183144,126.762564 599.286892,125.515203 C600.284897,124.396662 601.278321,123.837264 602.267164,123.83701 C603.256008,123.836756 604.231961,124.395647 605.195023,125.513685 C606.220731,126.760499 607.219346,127.383782 608.190868,127.383532 C609.16239,127.383282 610.129937,126.759495 611.093507,125.512169 C612.110569,124.393623 613.111467,123.834224 614.096203,123.833971 C615.080939,123.833718 616.053197,124.39261 617.012978,125.510648 C617.586386,126.366732 618.187637,126.794693 618.816733,126.794532" id="Path-6" stroke="#00BBC9" stroke-width="3" stroke-linecap="round" stroke-linejoin="round" transform="translate(604.618586, 125.610268) scale(1, -1) rotate(25.000000) translate(-604.618586, -125.610268) "></path>
                <path d="M633.688138,310.601045 C634.454338,309.41856 635.472463,309.40773 636.742512,310.568554 C637.852558,311.773704 638.822964,312.376386 639.65373,312.376599 C640.484496,312.376813 641.451433,311.753522 642.554541,310.506728 C643.55197,309.388699 644.545106,308.829812 645.53395,308.830066 C646.522794,308.83032 647.499035,309.389713 648.462671,310.508246 C649.48902,311.755587 650.487955,312.379383 651.459478,312.379633 C652.431,312.379882 653.398226,311.756592 654.361155,310.509761 C655.377642,309.391738 656.378253,308.832852 657.362989,308.833105 C658.347724,308.833358 659.32027,309.39275 660.280626,310.511282 C660.854474,311.36766 661.455946,311.79593 662.085041,311.796092" id="Path-6-Copy" stroke="#FFB44D" stroke-width="4" stroke-linecap="round" stroke-linejoin="round" transform="translate(647.886589, 310.604849) rotate(-25.000000) translate(-647.886589, -310.604849) "></path>
                <circle id="Oval-3" stroke="#E66A1C" stroke-width="4" cx="94.5" cy="589.5" r="9.5"></circle>
                <path d="M356.913603,696.181857 L361.056857,696.181857 C362.363054,696.181857 363.421936,697.240739 363.421936,698.546936 C363.421936,699.853134 362.363054,700.912016 361.056857,700.912016 L356.913603,700.912016 L356.913603,705.049317 C356.913603,706.356391 355.85401,707.415984 354.546936,707.415984 C353.239862,707.415984 352.18027,706.356391 352.18027,705.049317 L352.18027,700.912016 L348.037016,700.912016 C346.730818,700.912016 345.671936,699.853134 345.671936,698.546936 C345.671936,697.240739 346.730818,696.181857 348.037016,696.181857 L352.18027,696.181857 L352.18027,692.044555 C352.18027,690.737482 353.239862,689.677889 354.546936,689.677889 C355.85401,689.677889 356.913603,690.737482 356.913603,692.044555 L356.913603,696.181857 Z" id="Combined-Shape" fill="#14D2B8" transform="translate(354.546936, 698.546936) rotate(45.000000) translate(-354.546936, -698.546936) "></path>
                <polygon id="Rectangle-6" stroke="#FFB44D" stroke-width="4" transform="translate(701.716667, 416.523810) rotate(6.000000) translate(-701.716667, -416.523810) " points="694.617214 409.429014 708.81711 409.428024 708.81612 423.618605 694.616224 423.619595"></polygon>
                <polygon id="Rectangle-6" stroke="#FFB44D" stroke-width="4" transform="translate(23.803258, 303.799112) rotate(6.000000) translate(-23.803258, -303.799112) " points="16.7038046 296.704317 30.9037005 296.703327 30.9027105 310.893907 16.7028145 310.894897"></polygon>
                <polygon id="Rectangle-6" stroke="#FFB44D" stroke-width="4" transform="translate(44.803258, 797.799112) rotate(6.000000) translate(-44.803258, -797.799112) " points="37.7038046 790.704317 51.9037005 790.703327 51.9027105 804.893907 37.7028145 804.894897"></polygon>
            </g>
        </g>
    </g>
</svg>